{
  "total": 32,
  "per_page": "8",
  "current_page": 1,
  "last_page": 4,
  "data": [
    {
      "id": 1,
      "name": "多眼怪 C-",
      "price": "0.01",
      "stock": 998,
      "main_img_url": "https://ss2.baidu.com/6ONYsjip0QIZ8tyhnq/it/u=1113691991,3354508217&fm=173&app=49&f=JPEG?w=640&h=360&s=E0EBB0445A2B1E1FE5B3BF9F0300D08C",
      "img_id": 13,
      "summary": null
    },
    {
      "id": 2,
      "name": "篮球怪 C+",
      "price": "0.01",
      "stock": 0,
      "main_img_url": "https://ss2.baidu.com/6ONYsjip0QIZ8tyhnq/it/u=2958878936,1529954037&fm=173&app=49&f=JPEG?w=640&h=360&s=6D7416C64003B3511A5DB1960300D006",
      "img_id": 10,
      "summary": null
    },
    {
      "id": 3,
      "name": "小酒窝 A-",
      "price": "0.01",
      "stock": 996,
      "main_img_url": "https://ss1.baidu.com/6ONXsjip0QIZ8tyhnq/it/u=2687896219,3450138553&fm=173&app=49&f=JPEG?w=640&h=360&s=E0A320BE02032CE04C247F15030000D8",
      "img_id": 31,
      "summary": null
    },
    {
      "id": 4,
      "name": "花泽辉气 A",
      "price": "0.01",
      "stock": 998,
      "main_img_url": "https://ss1.baidu.com/6ONXsjip0QIZ8tyhnq/it/u=3056853223,3112989000&fm=173&app=49&f=JPEG?w=640&h=360&s=2DC09F4E58404F5FC829E13A0300D050",
      "img_id": 32,
      "summary": null
    },
    {
      "id": 5,
      "name": "爪组织喽啰 B+",
      "price": "0.01",
      "stock": 995,
      "main_img_url": "https://ss1.baidu.com/6ONXsjip0QIZ8tyhnq/it/u=4058310169,1231307164&fm=173&app=49&f=JPEG?w=640&h=360&s=62A2DC495AA9B25D0E7509170300F0C0",
      "img_id": 33,
      "summary": null
    },
    {
      "id": 6,
      "name": "恶灵驯养者 A+",
      "price": "0.01",
      "stock": 997,
      "main_img_url": "https://ss2.baidu.com/6ONYsjip0QIZ8tyhnq/it/u=141991202,121167718&fm=173&app=49&f=JPEG?w=640&h=360&s=33B5138E505A87D05CDB7FAD0300D006",
      "img_id": 53,
      "summary": null
    },
    {
      "id": 7,
      "name": "控火灵能者 A+",
      "price": "0.01",
      "stock": 998,
      "main_img_url": "https://ss1.baidu.com/6ONXsjip0QIZ8tyhnq/it/u=1693753738,2695315188&fm=173&app=49&f=JPEG?w=640&h=360&s=3BADE7065D6A66158B3FA36D0300706A",
      "img_id": 68,
      "summary": null
    },
    {
      "id": 8,
      "name": "气能力者干部 A++",
      "price": "0.01",
      "stock": 995,
      "main_img_url": "https://ss2.baidu.com/6ONYsjip0QIZ8tyhnq/it/u=3967058996,916242863&fm=173&app=49&f=JPEG?w=640&h=360&s=42131BC704D7F9E53A1DC11903008091",
      "img_id": 36,
      "summary": null
    }
  ]
}
